RobotCity.java: 50%

Compiles: 10%
display(): 10%
buildCity(): 10%
invade(): 10%
update(): 10%


Straight.java: 50%

Compiles: 12.5%
Able to generate a shuffled deck and select a hand: 12.5%
Able to find a straight: 12.5%
Correct percentage: 12.5%

Total Grade: 100%